<?xml version="1.0" encoding="utf-8"?>
<!-- Generator: Adobe Illustrator 23.0.1, SVG Export Plug-In . SVG Version: 6.00 Build 0)  -->
<svg version="1.1" id="Capa_1" xmlns="http://www.w3.org/2000/svg" xmlns:xlink="http://www.w3.org/1999/xlink" x="0px" y="0px"
	 width="512px" height="512px" viewBox="0 0 512 512" style="enable-background:new 0 0 512 512;" xml:space="preserve">
<style type="text/css">
	.st0{fill:#6BC4C7;}
</style>
<path class="st0" d="M121.6,282.6v5.2l12.6,12.6l37.3,0v9.6l14.5,14.5h36.5v73l15.3,15.3h35.5l15.3-15.3V194.9l28.6,28.6l27.6,0
	l29.1-29.1l0-27.6L288.5,81V0H123.6v81.2l-46.9,46.4v135.1l19.8,19.8H121.6z M91.7,133.9l46.9-46.4V15h134.9v72.2l85.4,85.7l0,15.2
	l-20.3,20.3l-15.2,0l-49.8-49.8v232.5l-6.5,6.5H244l-6.5-6.5V218h-15v91.5h-30.3l-5.7-5.7V218h-15l0,67.4h-31.1l-3.8-3.8V218h-15
	v49.7h-18.8l-11.1-11.1L91.7,133.9L91.7,133.9z"/>
<path class="st0" d="M118.8,416l-13.7,6c15.1,34.4,77.2,58.4,151,58.4c73.7,0,135.8-24,151-58.4l-13.7-6
	c-12.4,28.2-71.4,49.5-137.2,49.5C190.2,465.5,131.2,444.2,118.8,416z"/>
<path class="st0" d="M503.3,378.3c-67.6,11-136.5,17.5-205,19.3l0.4,15c66.2-1.8,132.8-7.9,198.3-18.1V497H15V394.4l1.1,0.2
	c64.7,10.1,130.7,16.1,196.1,18l0.4-15c-64.8-1.8-130.1-7.8-194.2-17.8L0,376.9V512h512V376.9L503.3,378.3z"/>
<path class="st0" d="M256,446c-11.3,0-22.4-0.7-33-1.9l1.8-14.9c10,1.2,20.5,1.8,31.2,1.8c31.2,0,59.9-5.2,76.6-14l7,13.3
	C320.8,440.1,289.6,446,256,446z M212.8,442.6c-5.3-0.9-10.5-2-15.3-3.2l3.7-14.5c4.4,1.1,9.2,2.1,14.1,2.9L212.8,442.6z
	 M187.4,436.5c-5.6-1.9-10.7-3.9-15-6.2l7-13.3c3.6,1.9,7.9,3.7,12.7,5.2L187.4,436.5z"/>
<path class="st0" d="M487,489.1h-15v-33.9h15V489.1z M487,445.2h-15v-15h15V445.2z M487,420.2h-15v-15h15V420.2z"/>
<path class="st0" d="M265.5,376.5h-15v-77h15V376.5z M265.5,289.5h-15v-15h15V289.5z M265.5,264.5h-15v-15h15V264.5z"/>
</svg>
