<?xml version="1.0" encoding="utf-8"?>
<!-- Generator: Adobe Illustrator 23.0.1, SVG Export Plug-In . SVG Version: 6.00 Build 0)  -->
<svg version="1.1" id="Capa_1" xmlns="http://www.w3.org/2000/svg" xmlns:xlink="http://www.w3.org/1999/xlink" x="0px" y="0px"
	 width="512px" height="512px" viewBox="0 0 512 512" style="enable-background:new 0 0 512 512;" xml:space="preserve">
<style type="text/css">
	.st0{fill:#6BC4C7;}
</style>
<g>
	<g>
		<path class="st0" d="M95.6,2.9C93.8,1.1,91.2,0,88.6,0s-5.2,1.1-7.1,2.9s-2.9,4.4-2.9,7.1s1.1,5.2,2.9,7.1s4.4,2.9,7.1,2.9
			s5.2-1.1,7.1-2.9s2.9-4.4,2.9-7.1S97.5,4.8,95.6,2.9z"/>
	</g>
</g>
<g>
	<g>
		<path class="st0" d="M420.8,250.4c-0.2-1-0.6-1.9-1.1-2.8c-4.2-10-9.2-19.6-15.2-28.7l-5.5-8.4c-0.3-0.4-0.6-0.8-0.9-1.2
			c1.6-3.6,2.6-7.6,2.6-11.8c0-23.4-19.1-42.5-42.5-42.5h-23.5c5.7-7.9,9-17.5,9-28c0-14.3-6.1-27.9-16.7-37.5L230.3,2.8
			c-4.1-3.7-10.4-3.4-14.1,0.8c-3.7,4.1-3.4,10.4,0.8,14.1l96.6,86.8c6.4,5.8,10.1,14,10.1,22.6c0,15.4-12.5,28-28,28h-1
			c-0.6,0-1.1,0-1.7,0.1l-99.7,16.9c-0.1,0-0.3,0-0.5-0.1c-0.2-0.2-0.2-0.3-0.2-0.4V64c0-5.5-4.5-10-10-10s-10,4.5-10,10v107.5
			c0,6.1,2.7,11.8,7.3,15.7c4.6,3.9,10.7,5.6,16.7,4.6l98.8-16.8h62.7c12.4,0,22.5,10.1,22.5,22.5c0,4.7-3.8,8.5-8.5,8.5h-75.5
			c-1.3,0-2.6,0.3-3.8,0.8l-107.4,44.1c-15.7,6.5-33.6,6.3-49.2-0.6c-22.9-10-37.7-32.6-37.7-57.6V41c0-5.5-4.5-10-10-10
			s-10,4.5-10,10v151.7c0,30.2,16.5,57.8,42.5,72.4v38.3c0,8-1.3,15.8-3.8,23.4C99,381.7,97.5,440.2,112.9,496l2.4,8.6
			c1.2,4.4,5.2,7.3,9.6,7.3c0.9,0,1.8-0.1,2.7-0.4c5.3-1.5,8.4-7,7-12.3l-2.4-8.6c-14.3-52-12.9-106.5,4.1-157.6
			c3.2-9.6,4.8-19.6,4.8-29.7V273c6.7,1.7,13.6,2.5,20.4,2.5c10.7,0,21.5-2.1,31.5-6.2L298.6,226h73.5c4.1,0,8-0.9,11.5-2.4l4.1,6.3
			c5.2,8,9.6,16.3,13.3,24.8c-1,13.4-12.2,24.1-25.9,24.1c-21.9,0-40.3,15.4-44.9,36c-0.6,0-1.3,0-1.9,0.1
			c-5.9,0.5-14.6,3.4-22.9,14.9c-1.3,1.8-3.8,2.6-6.9,2.8c7.3-8.2,11.8-18.9,11.8-30.7c0-25.4-20.7-46.1-46.1-46.1
			s-46.1,20.7-46.1,46.1c0,8.1,2.1,15.8,5.8,22.4c-0.1,0.4-0.2,0.8-0.3,1.1c-0.1,0.6-2.7,14.8,0.8,31.8
			c4.8,23.1,18.4,40.5,39.5,50.2c15.2,7,28.6,9.9,40.1,9.9c23,0,38.4-11.6,45.8-25.3c0.7,0.9,1.3,1.8,1.5,2.5
			c1.9,6.8,8.9,10.7,17.5,9.7c10.8-1.3,22.7-10.1,23.1-26.3c0.4-13.2-7.7-28.1-20.2-37c-6-4.3-12.3-6.7-18.6-7.2
			c-0.8-3.7-2.2-6.9-4-9.4c0.3-14,11.8-25.4,26-25.4c13.9,0,26.4-6.2,34.9-16.1c10.9,49.6-2.8,102.7-39.6,141.5
			c-12.8,13.5-19.8,31.1-19.8,49.7V502c0,5.5,4.5,10,10,10s10-4.5,10-10v-28.2c0-13.4,5.1-26.2,14.3-35.9
			c27.3-28.8,44.3-66.5,47.9-106.1C435.2,304.1,431,276.1,420.8,250.4z M264.1,275.6c14.4,0,26.1,11.7,26.1,26.1
			c0,14.4-11.7,26.1-26.1,26.1c-14.4,0-26.1-11.7-26.1-26.1C237.9,287.3,249.7,275.6,264.1,275.6z M350.3,353.4
			c3.9-0.1,7.6,2,9.7,3.5c6.8,4.9,12,13.8,11.8,20.2c-0.1,2.4-0.8,4.2-2.2,5.4c-0.5,0.5-1.1,0.8-1.6,1c-3.2-5.7-9.2-12.5-17.5-13.4
			c-3.5-0.4-12.2,0-18.1,11.4c-7.1,13.7-26.7,22.9-60.3,7.4c-23.7-10.9-29-32.4-29.7-46.6c6.4,3.4,13.8,5.4,21.6,5.4
			c2.6,0,5.2-0.2,7.7-0.6c4.9,2,35.7,13.7,49.8-5.9c2.9-4,6-6.5,8.3-6.7c1.3-0.1,2.4,0.6,3.2,1.3c0.4,0.7,1.3,3.3-0.1,7.1
			c-3.1,8.5-15.4,16.3-33.8,21.3c-5.3,1.5-8.5,7-7,12.3c1.2,4.4,5.2,7.4,9.6,7.4c0.9,0,1.8-0.1,2.6-0.4
			C332.9,375.9,345.2,363.9,350.3,353.4z"/>
	</g>
</g>
</svg>
