<?xml version="1.0" encoding="utf-8"?>
<!-- Generator: Adobe Illustrator 23.0.1, SVG Export Plug-In . SVG Version: 6.00 Build 0)  -->
<svg version="1.1" id="Capa_1" xmlns="http://www.w3.org/2000/svg" xmlns:xlink="http://www.w3.org/1999/xlink" x="0px" y="0px"
	 width="512px" height="512px" viewBox="0 0 512 512" style="enable-background:new 0 0 512 512;" xml:space="preserve">
<style type="text/css">
	.st0{fill:#6BC4C7;}
</style>
<path class="st0" d="M303.1,178.2c3.4,2.4,8.1,1.6,10.4-1.8l16-22.8c2.4-3.4,1.6-8.1-1.8-10.4s-8.1-1.6-10.4,1.8l-16,22.8
	C298.9,171.2,299.7,175.9,303.1,178.2z"/>
<path class="st0" d="M341.7,160l-5.4,27.3c-0.8,4.1,1.8,8,5.9,8.8c4.1,0.8,8-1.8,8.8-5.9l5.4-27.3c0.8-4.1-1.8-8-5.9-8.8
	S342.5,155.9,341.7,160z"/>
<path class="st0" d="M309.6,125.4c-2.1-3.5-6.8-4.7-10.3-2.5l-23.8,14.4c-3.5,2.1-4.7,6.8-2.5,10.3c2.1,3.5,6.8,4.7,10.3,2.5
	l23.8-14.4C310.6,133.6,311.7,129,309.6,125.4z"/>
<path class="st0" d="M83.7,156.2c2.8,1.4,6.1,1.4,9,0c7-3.5,29.8-16.5,29.8-39.5c0-18.2-21.2-27.1-34.3-16.1
	c-13.1-11-34.3-2.1-34.3,16.1C53.8,139.7,76.7,152.7,83.7,156.2z M79.9,113.8c1.4,2.5,4.5,4.6,8,4.7c3.6,0.1,7-2,8.5-4.7
	c3.1-5.3,11.1-3.1,11.1,2.8c0,12.7-13.4,21.6-19.3,24.9c-5.9-3.3-19.3-12.1-19.3-24.9C68.8,110.7,76.9,108.6,79.9,113.8z"/>
<path class="st0" d="M141.1,107.6h29.6c4.1,0,7.5-3.4,7.5-7.5c0-4.1-3.4-7.5-7.5-7.5h-29.6c-4.1,0-7.5,3.4-7.5,7.5
	C133.6,104.3,137,107.6,141.1,107.6z"/>
<path class="st0" d="M141.1,134h29.6c4.1,0,7.5-3.4,7.5-7.5s-3.4-7.5-7.5-7.5h-29.6c-4.1,0-7.5,3.4-7.5,7.5
	C133.6,130.7,137,134,141.1,134z"/>
<path class="st0" d="M141.1,160.4h29.6c4.1,0,7.5-3.4,7.5-7.5s-3.4-7.5-7.5-7.5h-29.6c-4.1,0-7.5,3.4-7.5,7.5S137,160.4,141.1,160.4
	z"/>
<path class="st0" d="M495.8,19c4.1,0,7.5-3.4,7.5-7.5S499.9,4,495.8,4h-73.7c-0.1,0-0.2,0-0.3,0c-2.5-0.1-5,1-6.5,3.2l-25.9,37
	l-32.8-23C339.1,9,317.5,4.9,296.8,9.6l-2.6-1.8c-9.6-6.7-22.8-4.3-29.5,5.2l-6,8.5c-6.7,9.6-4.4,22.8,5.2,29.5l2,1.4
	c-6.8,30.6,26.8,54.1,53.2,37.2l4.2,2.9c-6.8,30.6,26.8,54.1,53.2,37.2l4.2,2.9c-6.8,30.6,26.8,54.1,53.2,37.2l2.1,1.4
	c9.6,6.7,22.8,4.4,29.5-5.2l6-8.5c6.7-9.6,4.4-22.8-5.2-29.5L463,126c-2.6-21.1-13.9-39.9-31.2-52.1l-30.2-21.1L425.2,19H495.8z
	 M280.3,62.5l24.6,17.2C293.1,82.5,281.7,74.5,280.3,62.5z M337.7,102.6c15.1,10.6,9.5,6.7,24.6,17.2
	C350.5,122.7,339.1,114.7,337.7,102.6z M395.1,142.8c15,10.5,9.7,6.8,24.6,17.2C407.9,162.9,396.5,154.9,395.1,142.8z M459.2,149.2
	l-6,8.5c-2,2.8-5.8,3.5-8.6,1.5c-9.5-6.6-162.5-113.8-172-120.4c-2.8-1.9-3.5-5.8-1.5-8.6l6-8.5c1.9-2.8,5.8-3.5,8.6-1.5l172,120.4
	C460.4,142.5,461.1,146.4,459.2,149.2z M444.3,112.9c-7.9-5.5-125-87.6-128.7-90.1c11.5,0.4,22.7,4,32.3,10.7l75.3,52.7
	C432.8,92.9,440,102.2,444.3,112.9z"/>
<path class="st0" d="M490.8,314.5h-32.3c1.2-2.9,1.9-6,1.9-9.3c0-13.4-10.9-24.3-24.3-24.3H393c-2.3-6.8-8.7-11.7-16.3-11.7H213.8
	c-0.2,0-0.3,0-0.5-0.1l-34.8-8.5c-6.8-1.7-14.1,0.9-18.2,7l-20.4-5c-10.4-2.5-21,2.1-26.4,10.8h-3.1c7.6-8.9,12.2-20.5,12.2-33.1
	c0-9.3-2.5-18.1-6.9-25.6h91.3c16.3,0,29.6-13.3,29.6-29.6V144c0-4.1-3.4-7.5-7.5-7.5c-4.1,0-7.5,3.4-7.5,7.5v41.1
	c0,8-6.5,14.6-14.6,14.6H102.4c-18.3-14.1-43.9-14.1-62.2,0H29.6c-8,0-14.6-6.5-14.6-14.6V67.9c0-8,6.5-14.6,14.6-14.6h177.3
	c8,0,14.6,6.5,14.6,14.6V109c0,4.1,3.4,7.5,7.5,7.5c4.1,0,7.5-3.4,7.5-7.5V67.9c0-16.3-13.3-29.6-29.6-29.6H29.6
	C13.3,38.3,0,51.6,0,67.9v117.3c0,15.5,12,28.2,27.1,29.5c-4.4,7.6-7,16.4-7,25.7c0,12.6,4.6,24.2,12.2,33.1H21.2
	C9.5,273.5,0,283,0,294.7v13.7c0,5.2,1.9,10,5,13.7c-3.1,3.7-5,8.5-5,13.7v13.7c0,11.3,8.9,20.6,20.1,21.1v6.6
	c0,11.7,9.5,21.2,21.2,21.2H62v95.1c0,7.9,6.4,14.3,14.3,14.3h14.2c7.9,0,14.3-6.4,14.3-14.3v-95.1h52.4v61.3
	c0,9.5,7.7,17.2,17.2,17.2H261c4.1,0,7.5-3.4,7.5-7.5s-3.4-7.5-7.5-7.5h-86.6c-1.2,0-2.2-1-2.2-2.2c0-5.1,0-176.8,0-182.2
	c0,0,0-0.1,0-0.1c0-1.4,1.3-2.4,2.7-2.1l34.8,8.5c1.3,0.3,2.7,0.5,4.1,0.5h162.9c1.2,0,2.2,1,2.2,2.2v173.1c0,1.2-1,2.2-2.2,2.2H296
	c-4.1,0-7.5,3.4-7.5,7.5c0,4.1,3.4,7.5,7.5,7.5h80.7c9.5,0,17.2-7.7,17.2-17.2v-61.3h13.4v95.1c0,7.9,6.4,14.3,14.3,14.3h14.2
	c7.9,0,14.3-6.4,14.3-14.3v-95.1h20.7c11.7,0,21.2-9.5,21.2-21.2v-6.6c11.2-0.5,20.1-9.8,20.1-21.1v-13.7
	C512,324,502.5,314.5,490.8,314.5z M136.3,277.3l20.9,5.1v19.1l-8.9-2.2l-16.4-4c-4.4-1.1-7.2-5.1-7.1-9.4
	C125,280.2,130.5,275.9,136.3,277.3z M71.3,276.6c-19.8,0-36.2-16.1-36.2-36.2c0-18.8,14.4-34.3,32.8-36c21.3-2,39.6,14.8,39.6,36
	C107.5,260.5,91.1,276.6,71.3,276.6z M15,294.7c0-3.4,2.8-6.2,6.2-6.2h32.6c11.3,4.1,23.8,4.1,35.1,0h21c0.9,10.3,8.4,19,18.4,21.4
	l9.4,2.3c-1.1,1.4-2.9,2.3-4.8,2.3H21.2c-3.4,0-6.2-2.8-6.2-6.2V294.7z M15,349.4v-13.7c0-3.4,2.8-6.2,6.2-6.2h136v26
	c-9.4,0-133.5,0-136,0C17.8,355.6,15,352.8,15,349.4z M89.8,492.7H77v-94.4h12.7V492.7z M41.3,383.3c-3.4,0-6.2-2.8-6.2-6.2v-6.6
	h122.1v12.7C152.2,383.3,45.8,383.3,41.3,383.3z M445.4,305.2c0,5.1-4.2,9.3-9.3,9.3h-42.2v-18.6h42.2
	C441.2,295.9,445.4,300.1,445.4,305.2z M435,492.7h-12.7v-94.4H435V492.7z M476.9,377.1c0,3.4-2.8,6.2-6.2,6.2c-7.1,0-68.3,0-76.8,0
	v-12.7h83V377.1z M497,349.4c0,3.4-2.8,6.2-6.2,6.2c-10.6,0-86.3,0-96.9,0v-26h96.9c3.4,0,6.2,2.8,6.2,6.2V349.4z"/>
<path class="st0" d="M34.8,65.6c-4.1,0-7.5,3.4-7.5,7.5V180c0,4.1,3.4,7.5,7.5,7.5h166.9c4.1,0,7.5-3.4,7.5-7.5V73.1
	c0-4.1-3.4-7.5-7.5-7.5H34.8z M194.2,172.5H42.3V80.6h151.9V172.5z"/>
</svg>
