<?xml version="1.0" encoding="utf-8"?>
<!-- Generator: Adobe Illustrator 23.0.1, SVG Export Plug-In . SVG Version: 6.00 Build 0)  -->
<svg version="1.1" id="Capa_1" xmlns="http://www.w3.org/2000/svg" xmlns:xlink="http://www.w3.org/1999/xlink" x="0px" y="0px"
	 width="512px" height="512px" viewBox="0 0 512 512" style="enable-background:new 0 0 512 512;" xml:space="preserve">
<style type="text/css">
	.st0{fill:#6BC4C7;}
</style>
<path class="st0" d="M98.1,327.1c0,28.4,0,29.1,0.1,30.9l0,0.8c2.9,88.6,63,145.1,139.8,153.2c4.1,0.4,7.8-2.6,8.3-6.7
	c0.4-4.1-2.6-7.8-6.7-8.3c-56.4-5.9-123.3-45.8-126.4-138.8l0-0.9c-0.1-3.5-0.1-84.1-0.1-89.3c0-63.5,88.1-126.9,143-158.7
	c54.8,31.8,143,95.2,143,158.7c0,84.1,0,87-0.1,89.3l0,0.9c-3,92.7-69.7,132.6-125.9,138.7c-4.1,0.4-7.1,4.2-6.7,8.3
	c0.4,4.1,4.1,7.1,8.3,6.7c75.8-8.2,136.4-63.9,139.3-153.2l0-0.8c0.1-1.8,0.1-2.5,0.1-31c2.7-7,5-13.9,7.1-20.7
	C474,226,465.5,132,398.7,60.6c-2.8-3-7.6-3.2-10.6-0.4c-3,2.8-3.2,7.6-0.4,10.6c49.1,52.5,64.3,118.2,43.8,180.3
	c7.8-121.7-97.8-195.7-215.4-228.5c51.4-15.1,103.5-8.8,146.4,25c3.3,2.6,8,2,10.6-1.2c2.6-3.3,2-8-1.2-10.6
	C336.6,8.1,293.6-3.9,247.3,1.1c-28.9,3.1-50.4,11.9-57.5,15.1c-0.7-0.1-3.8-0.8-4.5-0.9c-27.4-3.4-42.7,16.6-47,23.3
	c-10.1,5.5-53.5,31.6-72.5,87.6C48.4,177.6,56.9,238,90.9,305.7C94,316.5,96.8,324,98.1,327.1z M240.3,101.2
	c-57,34.3-138.7,95.9-142.1,162.5C89.3,183.1,124,119.7,205.4,83.7L240.3,101.2z M183.2,30.2c91.7,16.9,217.2,78.3,232.1,184.7
	c2.6,18.7,1.9,37.6-1.1,55.9c0-54.8-46.3-100.8-89.9-134.2c-27.4-21-59.2-39.9-64.8-42.8L154.8,41.6C160,35.9,169.4,28.6,183.2,30.2
	z M79.9,131.3c16.1-47.9,52.9-72.2,63.8-78.5c8.5,4.2,36,18,44.6,22.3c-69.1,34.3-107.4,91.2-106.5,168.1
	C69.5,201.9,68.8,164.4,79.9,131.3z"/>
<path class="st0" d="M209.6,307c2,3.6,6.6,5,10.2,3c3.6-2,5-6.6,3-10.2l-0.7-1.3c1.7-0.9,3.4-1.9,5.2-3c3.5-2.2,4.5-6.9,2.3-10.4
	c-2.2-3.5-6.9-4.5-10.4-2.3c-21,13.3-41.4,10.3-57-4.4c-1.8-1.7-2.7-2.7-3.5-3.7c-2.5-3.3-7.3-3.9-10.5-1.3
	c-3.2,2.5-3.9,7.1-1.5,10.4l-1.3,1.4c-2.9,3-2.7,7.8,0.3,10.6c3,2.9,7.8,2.7,10.6-0.3l1.2-1.3c1.6,1.2,3.4,2.4,5.3,3.6l-1.1,2.4
	c-2.4,5,1.3,10.8,6.8,10.8c2.8,0,5.5-1.6,6.8-4.3l1.3-2.6c2.6,0.8,5.3,1.4,8.2,1.8v1.9c0,4.1,3.4,7.5,7.5,7.5c4.2,0,7.5-3.4,7.5-7.5
	v-1.9c2.6-0.4,5.4-0.9,8.2-1.7L209.6,307z"/>
<path class="st0" d="M364,273.4c-3.3-2.6-8-2-10.5,1.3c-1.6,2-3,3.1-3.9,4.1c-8.2,7.6-28.8,21.6-56.6,3.9c-3.5-2.2-8.1-1.2-10.4,2.3
	c-2.2,3.5-1.2,8.1,2.3,10.4c1.7,1.1,3.5,2.1,5.2,3l-0.7,1.3c-2,3.6-0.7,8.2,3,10.2c1.1,0.6,2.4,0.9,3.6,0.9c2.6,0,5.2-1.4,6.6-3.9
	l1.5-2.8c2.8,0.8,5.5,1.3,8.2,1.7v1.9c0,4.1,3.4,7.5,7.5,7.5c4.1,0,7.5-3.4,7.5-7.5v-1.9c2.9-0.4,5.7-1.1,8.2-1.8l1.3,2.6
	c1.8,3.7,6.3,5.3,10,3.5s5.3-6.3,3.5-10l-1.1-2.4c1.9-1.2,3.7-2.4,5.3-3.6l1.2,1.3c2.9,3,7.6,3.1,10.6,0.3c3-2.9,3.1-7.6,0.3-10.6
	l-1.3-1.4C367.8,280.5,367.2,275.9,364,273.4z"/>
<path class="st0" d="M212.7,427.1c27.6,21.9,59.3,22,86.9,0c7.6-6,3.3-18.3-6.4-18.3H219C209.3,408.8,205.1,421.1,212.7,427.1z
	 M276.6,423.8c-13.5,6.2-27.5,6.2-41,0H276.6z"/>
<path class="st0" d="M275.5,343.1c-4.2,0-7.5,3.4-7.5,7.5c0,6.6-5.3,11.9-11.9,11.9s-11.9-5.3-11.9-11.9c0-4.1-3.4-7.5-7.5-7.5
	c-4.1,0-7.5,3.4-7.5,7.5c0,14.8,12.1,26.9,26.9,26.9s26.9-12.1,26.9-26.9C283,346.4,279.6,343.1,275.5,343.1z"/>
<path class="st0" d="M381.2,373c0.2-1.7,0.4-3.5,0.5-5.2c0.3-4.1-2.7-7.8-6.9-8.1c-4.1-0.3-7.8,2.7-8.1,6.9
	c-0.1,1.6-0.3,3.2-0.5,4.8c-0.5,4.4,3,8.3,7.5,8.3C377.5,379.7,380.7,376.8,381.2,373z"/>
<path class="st0" d="M368.5,399.2c-3.9-1.4-8.2,0.7-9.6,4.6c-0.5,1.5-1.1,3-1.6,4.5c-1.9,4.9,1.7,10.2,7,10.2c3,0,5.9-1.8,7-4.8
	c0.6-1.6,1.2-3.3,1.8-5C374.5,404.8,372.4,400.6,368.5,399.2z"/>
<path class="st0" d="M341.6,437.4c-0.9,1.3-1.9,2.6-2.8,3.8c-2.5,3.3-1.9,8,1.3,10.5c3.3,2.5,8,1.9,10.5-1.3
	c1.1-1.4,2.1-2.8,3.1-4.2c2.4-3.4,1.6-8.1-1.7-10.5S344,434,341.6,437.4z"/>
<path class="st0" d="M315.4,464.6c-1.2,1-2.5,1.9-3.8,2.9c-3.4,2.4-4.1,7.1-1.6,10.5c2.4,3.4,7.1,4.1,10.5,1.6
	c1.4-1,2.8-2.1,4.2-3.2c3.3-2.6,3.8-7.3,1.3-10.6C323.4,462.6,318.7,462,315.4,464.6z"/>
<path class="st0" d="M382.3,331.8c0-4.1-3.3-7.5-7.5-7.6c0,0,0,0-0.1,0c-4.1,0-7.5,3.3-7.5,7.5v0.5c0,4.1,3.4,7.5,7.5,7.5
	c4.2,0,7.5-3.4,7.5-7.5V331.8z"/>
<path class="st0" d="M131.6,377.7c0.6,4.1,4.4,7,8.5,6.4c4.1-0.6,7-4.4,6.4-8.5c-0.2-1.6-0.4-3.2-0.6-4.7c-0.4-4.1-4.1-7.1-8.3-6.7
	c-4.1,0.4-7.1,4.2-6.7,8.3C131.1,374.2,131.4,376,131.6,377.7z"/>
<path class="st0" d="M162.6,439.5c-3.3,2.5-3.9,7.2-1.4,10.5c1.1,1.4,2.2,2.8,3.3,4.1c2.6,3.2,7.4,3.6,10.6,1s3.6-7.4,1-10.6
	c-1-1.2-2-2.5-3-3.7C170.6,437.5,165.9,436.9,162.6,439.5z"/>
<path class="st0" d="M137.4,344.2c4.1,0,7.5-3.4,7.5-7.5l0-5c0-4.1-3.4-7.5-7.5-7.5c0,0,0,0,0,0c-4.2,0-7.5,3.4-7.5,7.5l0,5
	C129.8,340.9,133.2,344.2,137.4,344.2L137.4,344.2z"/>
<path class="st0" d="M142.6,418.1c1.6,3.8,6,5.6,9.9,4c3.8-1.6,5.6-6,4-9.9c-0.6-1.4-1.2-2.9-1.8-4.4c-1.5-3.9-5.8-5.8-9.7-4.3
	c-3.9,1.5-5.8,5.8-4.3,9.7C141.3,414.9,142,416.5,142.6,418.1z"/>
<path class="st0" d="M200.2,467.2c-3.4-2.4-8.1-1.7-10.5,1.6s-1.7,8.1,1.6,10.5l0.3,0.2c3.3,2.5,8,1.7,10.5-1.6
	c2.5-3.3,1.7-8-1.6-10.5L200.2,467.2z"/>
</svg>
